#
# Sprite sheet data for MonoGame.
#
# To learn how to import these sprites into your MonoGame project visit:
# https://www.codeandweb.com/texturepacker/monogame
#
# Sprite sheet: Level0Fg.png (4088 x 2240)
# $TexturePacker:SmartUpdate:2caf66c4ecfcc12dbdd5f8c47c0335b8:19bea29ced0ac6db61b0bbcfcbe86e04:c0ed6f38f4468d39352cfffe55c1e528$
#

bushyTreeFinal;0;4;4;400;559;400;562;0.5;0.49731663685152055
desertTent;0;410;4;688;695;700;700;0.502906976744186;0.5035971223021583
fightersInn;0;1104;4;1499;839;1500;850;0.5003335557038026;0.5065554231227652
forestTreeFinal;0;2609;4;350;525;350;525;0.5;0.5
greenPlant1;0;2965;4;72;59;74;60;0.5;0.5084745762711864
greenPlant2;0;3043;4;69;65;70;68;0.5072463768115942;0.47692307692307695
miniTent;0;3118;4;357;465;369;483;0.5;0.4935483870967742
orangePlant1;0;3481;4;45;64;46;67;0.4888888888888889;0.4921875
orangePlant2;0;3532;4;44;48;45;49;0.48863636363636365;0.4895833333333333
prettyTreeFinal;0;3582;4;500;536;500;536;0.5;0.5
redPlant;0;4;849;85;92;87;93;0.5;0.4945652173913043
redPlant2;0;95;849;77;85;79;86;0.5;0.5058823529411764
redPlant3;0;178;849;74;79;75;80;0.49324324324324326;0.5063291139240507
redPlant4;0;258;849;77;80;80;81;0.4935064935064935;0.49375
smallBlueHouse;0;341;849;855;791;870;797;0.4982456140350877;0.5037926675094817
smallerTree;0;1202;849;316;490;320;500;0.5063291139240507;0.5
smallStoneHouse;0;1524;849;448;630;450;630;0.5;0.5
spookyTree;0;1978;849;777;1386;1024;1409;0.49163449163449163;0.5025252525252525
tallTree;0;2761;849;400;600;400;600;0.5;0.5
twoStoryBlueHouse;0;3167;849;750;968;750;968;0.5;0.5